module bitbucket.org/fufoo/empty-list-bug

go 1.17

require (
	github.com/99designs/gqlgen v0.14.0
	github.com/stretchr/testify v1.4.0
	github.com/vektah/gqlparser/v2 v2.2.0
)

require (
	github.com/agnivade/levenshtein v1.1.0 // indirect
	github.com/davecgh/go-spew v1.1.1 // indirect
	github.com/gorilla/websocket v1.4.2 // indirect
	github.com/hashicorp/golang-lru v0.5.0 // indirect
	github.com/mitchellh/mapstructure v0.0.0-20180203102830-a4e142e9c047 // indirect
	github.com/pmezard/go-difflib v1.0.0 // indirect
	gopkg.in/yaml.v2 v2.2.4 // indirect
)

replace github.com/vektah/gqlparser/v2 => github.com/dkolbly/gqlparser/v2 v2.2.1-0.20211216202427-d579b6df640d
